<?xml version="1.0" encoding="UTF-8" standalone="no"?>
<!-- Created with Inkscape (http://www.inkscape.org/) -->

<svg
   xmlns:dc="http://purl.org/dc/elements/1.1/"
   xmlns:cc="http://creativecommons.org/ns#"
   xmlns:rdf="http://www.w3.org/1999/02/22-rdf-syntax-ns#"
   xmlns:svg="http://www.w3.org/2000/svg"
   xmlns="http://www.w3.org/2000/svg"
   xmlns:sodipodi="http://sodipodi.sourceforge.net/DTD/sodipodi-0.dtd"
   xmlns:inkscape="http://www.inkscape.org/namespaces/inkscape"
   width="210mm"
   height="297mm"
   viewBox="0 0 210 297"
   version="1.1"
   id="svg8"
   inkscape:version="0.92.2 (unknown)"
   sodipodi:docname="images.svg">
  <defs
     id="defs2" />
  <sodipodi:namedview
     id="base"
     pagecolor="#ffffff"
     bordercolor="#666666"
     borderopacity="1.0"
     inkscape:pageopacity="0.0"
     inkscape:pageshadow="2"
     inkscape:zoom="1.1005859"
     inkscape:cx="10.189862"
     inkscape:cy="710.25124"
     inkscape:document-units="mm"
     inkscape:current-layer="layer1"
     showgrid="false"
     inkscape:window-width="1920"
     inkscape:window-height="1023"
     inkscape:window-x="0"
     inkscape:window-y="27"
     inkscape:window-maximized="1" />
  <metadata
     id="metadata5">
    <rdf:RDF>
      <cc:Work
         rdf:about="">
        <dc:format>image/svg+xml</dc:format>
        <dc:type
           rdf:resource="http://purl.org/dc/dcmitype/StillImage" />
        <dc:title></dc:title>
      </cc:Work>
    </rdf:RDF>
  </metadata>
  <g
     inkscape:label="Layer 1"
     inkscape:groupmode="layer"
     id="layer1">
    <text
       xml:space="preserve"
       style="font-style:normal;font-variant:normal;font-weight:normal;font-stretch:normal;font-size:3.67303896px;line-height:1.25;font-family:'Berthold Akzidenz Grotesk BE';-inkscape-font-specification:'Berthold Akzidenz Grotesk BE';text-align:center;letter-spacing:0px;word-spacing:0px;text-anchor:middle;fill:#000000;fill-opacity:1;stroke:none;stroke-width:0.55095583"
       x="58.023464"
       y="130.98203"
       id="text1701"><tspan
         sodipodi:role="line"
         id="tspan1699"
         x="58.023464"
         y="134.23346"
         style="stroke-width:0.55095583" /></text>
    <path
       sodipodi:nodetypes="cccc"
       inkscape:connector-curvature="0"
       id="path1721"
       d="M 45.733128,192.02697 H 62.902105 L 54.317617,180.63748 Z"
       style="opacity:1;vector-effect:none;fill:#a02c2c;fill-opacity:1;stroke:none;stroke-width:3;stroke-linecap:round;stroke-linejoin:round;stroke-miterlimit:4;stroke-dasharray:none;stroke-dashoffset:0;stroke-opacity:1"
       inkscape:export-filename="/home/rui/sdr/projects/car/c_comm/images/t.png"
       inkscape:export-xdpi="105.83331"
       inkscape:export-ydpi="105.83331" />
    <path
       style="opacity:1;vector-effect:none;fill:#a02c2c;fill-opacity:1;stroke:none;stroke-width:3;stroke-linecap:round;stroke-linejoin:round;stroke-miterlimit:4;stroke-dasharray:none;stroke-dashoffset:0;stroke-opacity:1"
       d="m 70.980275,180.63748 h 17.16898 l -8.58449,11.38949 z"
       id="path1723"
       inkscape:connector-curvature="0"
       sodipodi:nodetypes="cccc"
       inkscape:export-filename="/home/rui/sdr/projects/car/c_comm/images/b.png"
       inkscape:export-xdpi="105.83331"
       inkscape:export-ydpi="105.83331" />
    <path
       sodipodi:nodetypes="cccc"
       inkscape:connector-curvature="0"
       id="path1725"
       d="m 96.227415,194.91671 v -17.16898 l 11.389505,8.58449 z"
       style="opacity:1;vector-effect:none;fill:#a02c2c;fill-opacity:1;stroke:none;stroke-width:3;stroke-linecap:round;stroke-linejoin:round;stroke-miterlimit:4;stroke-dasharray:none;stroke-dashoffset:0;stroke-opacity:1"
       inkscape:export-filename="/home/rui/sdr/projects/car/c_comm/images/r.png"
       inkscape:export-xdpi="105"
       inkscape:export-ydpi="105" />
    <path
       style="opacity:1;vector-effect:none;fill:#a02c2c;fill-opacity:1;stroke:none;stroke-width:3;stroke-linecap:round;stroke-linejoin:round;stroke-miterlimit:4;stroke-dasharray:none;stroke-dashoffset:0;stroke-opacity:1"
       d="m 127.08459,194.91671 v -17.16898 l -11.3895,8.58449 z"
       id="path1727"
       inkscape:connector-curvature="0"
       sodipodi:nodetypes="cccc"
       inkscape:export-filename="/home/rui/sdr/projects/car/c_comm/images/l.png"
       inkscape:export-xdpi="105"
       inkscape:export-ydpi="105" />
    <rect
       style="opacity:1;vector-effect:none;fill:#e3dedb;fill-opacity:1;stroke:none;stroke-width:0.24532208;stroke-linecap:butt;stroke-linejoin:bevel;stroke-miterlimit:4;stroke-dasharray:none;stroke-dashoffset:0;stroke-opacity:1"
       id="rect815"
       width="120"
       height="120"
       x="34.244022"
       y="29.908003" />
    <g
       id="g1767"
       transform="translate(-3.3460006,-0.98124315)">
      <path
         inkscape:connector-curvature="0"
         id="path1031"
         d="m 97.511785,69.656286 c -3.771176,-0.01913 -6.52488,1.266573 -8.070825,3.776514 -0.80023,1.299221 -0.801705,1.308756 -0.933793,6.213057 l -0.132292,4.911844 -0.857829,0.533818 c -0.807654,0.50251 -1.380139,1.558697 -1.033011,1.905828 0.08628,0.08628 0.572899,-0.160287 1.081587,-0.548288 l 0.925008,-0.705382 0.07441,11.072707 0.07441,11.073226 0.721919,1.09037 c 0.867405,1.3103 2.703756,2.44191 4.694804,2.89285 1.974072,0.44709 6.369017,0.26779 8.156607,-0.3328 0.77129,-0.25914 1.92964,-0.93561 2.57452,-1.50326 1.9218,-1.69163 1.97611,-2.076 1.97611,-14.031705 V 85.710604 l 0.83199,0.699699 c 0.48535,0.40844 0.92933,0.602356 1.0666,0.465087 0.36396,-0.363971 -0.004,-1.022953 -0.99529,-1.778704 l -0.9033,-0.688845 v -4.039547 c 0,-4.987499 -0.32727,-6.305471 -2.01383,-8.108551 -1.65061,-1.76462 -3.30665,-2.42558 -6.469892,-2.582269 -0.260399,-0.0129 -0.5165,-0.01991 -0.767912,-0.02119 z m -5.669938,2.078426 c 0.51467,0 0.461451,0.340598 -0.180351,1.156518 -0.67541,0.858641 -1.475638,1.321556 -1.688786,0.976685 -0.199816,-0.32331 1.386019,-2.133203 1.869137,-2.133203 z m 11.502143,0 c 0.43823,0 1.83193,1.494332 1.83193,1.964222 0,0.574019 -0.11061,0.53599 -1.18133,-0.404111 -0.90955,-0.7986 -1.22727,-1.560111 -0.6506,-1.560111 z m -5.838923,7.466211 c 3.011413,0.04202 6.769923,1.134308 7.378363,2.271178 0.21092,0.39411 0.13902,1.240195 -0.28474,3.354835 -0.56161,2.80258 -0.57289,2.826808 -1.2516,2.675289 -2.03506,-0.454311 -5.459798,-0.705189 -7.530292,-0.551386 -1.291106,0.09591 -2.861637,0.329144 -3.490226,0.518313 l -1.142566,0.344165 -0.262516,-1.22628 c -0.947807,-4.434531 -0.964453,-4.749515 -0.292489,-5.464784 0.737138,-0.784651 3.286237,-1.630309 5.64255,-1.871721 0.388359,-0.03979 0.803313,-0.05561 1.233516,-0.04961 z m 8.141623,5.630664 0.0294,7.325135 c 0.0167,4.197099 -0.0811,7.614764 -0.22892,8.003648 -0.14192,0.37327 -0.37817,0.67851 -0.52452,0.67851 -0.51844,0 -0.61785,-1.471508 -0.45475,-6.724138 0.12199,-3.928621 0.29706,-5.831851 0.67179,-7.29878 z m -16.022795,0.529167 0.459403,1.852083 c 0.517943,2.08661 0.94352,10.075738 0.65319,12.264366 -0.09937,0.749077 -0.280387,1.361677 -0.402042,1.361677 -0.641913,0 -0.767577,-1.399761 -0.740007,-8.25066 z m 7.934916,16.271876 c 3.868439,0 4.967669,0.08 5.415689,0.39377 0.54016,0.37834 1.40767,2.41429 1.40767,3.30368 0,0.6414 -1.82264,2.29199 -3.175,2.87527 -1.448509,0.6247 -3.664596,0.85892 -5.362467,0.56638 -2.702936,-0.46572 -4.956286,-2.15448 -4.956286,-3.7145 0,-1.06181 0.758282,-2.85784 1.337386,-3.16777 0.263975,-0.14127 2.663685,-0.25683 5.333008,-0.25683 z m 7.590749,6.08542 c 0.58227,0 0.26904,0.75809 -0.6444,1.5601 -1.04316,0.91591 -1.0816,0.93195 -1.31775,0.54984 -0.18509,-0.29947 1.49858,-2.10994 1.96215,-2.10994 z m -15.256431,0.12402 c 0.208009,0.011 0.689523,0.31621 1.157035,0.74466 1.194826,1.09493 1.144121,1.73975 -0.07855,0.9958 -0.953029,-0.57989 -1.551851,-1.47886 -1.150317,-1.72703 0.0177,-0.0109 0.04211,-0.015 0.07183,-0.0134 z"
         style="fill:#483737;stroke-width:0.26458332" />
      <path
         sodipodi:nodetypes="cccc"
         inkscape:connector-curvature="0"
         id="rect1036"
         d="M 89.005534,65.815787 H 106.17451 L 97.590023,54.426302 Z"
         style="opacity:1;vector-effect:none;fill:#c8b7b7;fill-opacity:1;stroke:none;stroke-width:3;stroke-linecap:round;stroke-linejoin:round;stroke-miterlimit:4;stroke-dasharray:none;stroke-dashoffset:0;stroke-opacity:1" />
      <path
         style="opacity:1;vector-effect:none;fill:#c8b7b7;fill-opacity:1;stroke:none;stroke-width:3;stroke-linecap:round;stroke-linejoin:round;stroke-miterlimit:4;stroke-dasharray:none;stroke-dashoffset:0;stroke-opacity:1"
         d="m 89.005534,115.9627 h 17.168976 l -8.584487,11.38949 z"
         id="path1041"
         inkscape:connector-curvature="0"
         sodipodi:nodetypes="cccc" />
      <path
         sodipodi:nodetypes="cccc"
         inkscape:connector-curvature="0"
         id="path1043"
         d="m 112.29408,99.473732 v -17.16897 l 11.3895,8.58449 z"
         style="opacity:1;vector-effect:none;fill:#c8b7b7;fill-opacity:1;stroke:none;stroke-width:3;stroke-linecap:round;stroke-linejoin:round;stroke-miterlimit:4;stroke-dasharray:none;stroke-dashoffset:0;stroke-opacity:1" />
      <path
         style="opacity:1;vector-effect:none;fill:#c8b7b7;fill-opacity:1;stroke:none;stroke-width:3;stroke-linecap:round;stroke-linejoin:round;stroke-miterlimit:4;stroke-dasharray:none;stroke-dashoffset:0;stroke-opacity:1"
         d="m 82.885966,99.473732 v -17.16897 l -11.3895,8.58449 z"
         id="path1045"
         inkscape:connector-curvature="0"
         sodipodi:nodetypes="cccc" />
    </g>
    <rect
       style="opacity:1;vector-effect:none;fill:none;fill-opacity:1;stroke:#483737;stroke-width:0.5;stroke-linecap:round;stroke-linejoin:round;stroke-miterlimit:4;stroke-dasharray:none;stroke-dashoffset:0;stroke-opacity:1"
       id="rect1778"
       width="6.4067621"
       height="5.8728652"
       x="38.223957"
       y="32.557518"
       ry="1.0217096" />
    <text
       xml:space="preserve"
       style="font-style:normal;font-variant:normal;font-weight:normal;font-stretch:normal;font-size:1.76388884px;line-height:1.25;font-family:'Berthold Akzidenz Grotesk BE';-inkscape-font-specification:'Berthold Akzidenz Grotesk BE';text-align:center;letter-spacing:0px;word-spacing:0px;text-anchor:middle;fill:#483737;fill-opacity:1;stroke:#483737;stroke-width:0.1;stroke-opacity:1"
       x="41.365601"
       y="36.116604"
       id="text1782"><tspan
         sodipodi:role="line"
         id="tspan1780"
         x="41.365601"
         y="36.116604"
         style="font-style:normal;font-variant:normal;font-weight:500;font-stretch:normal;font-family:'Berthold Akzidenz Grotesk BE';-inkscape-font-specification:'Berthold Akzidenz Grotesk BE Medium';fill:#483737;fill-opacity:1;stroke:#483737;stroke-width:0.1;stroke-opacity:1">ESC</tspan></text>
    <text
       id="text1786"
       y="36.301929"
       x="58.953545"
       style="font-style:normal;font-variant:normal;font-weight:normal;font-stretch:normal;font-size:3.35260224px;line-height:1.25;font-family:'Berthold Akzidenz Grotesk BE';-inkscape-font-specification:'Berthold Akzidenz Grotesk BE';text-align:center;letter-spacing:0px;word-spacing:0px;text-anchor:middle;fill:#483737;fill-opacity:1;stroke:#483737;stroke-width:0.19006881;stroke-opacity:1"
       xml:space="preserve"><tspan
         style="font-style:normal;font-variant:normal;font-weight:500;font-stretch:normal;font-family:'Berthold Akzidenz Grotesk BE';-inkscape-font-specification:'Berthold Akzidenz Grotesk BE Medium';fill:#483737;fill-opacity:1;stroke:none;stroke-width:0.19006881;stroke-opacity:1"
         y="36.301929"
         x="58.953545"
         id="tspan1784"
         sodipodi:role="line">Press Esc to quit</tspan></text>
    <text
       xml:space="preserve"
       style="font-style:normal;font-variant:normal;font-weight:normal;font-stretch:normal;font-size:3.35260224px;line-height:1.25;font-family:'Berthold Akzidenz Grotesk BE';-inkscape-font-specification:'Berthold Akzidenz Grotesk BE';text-align:center;letter-spacing:0px;word-spacing:0px;text-anchor:middle;fill:#483737;fill-opacity:1;stroke:#483737;stroke-width:0.19006881;stroke-opacity:1"
       x="140.71877"
       y="146.62547"
       id="text1790"><tspan
         sodipodi:role="line"
         id="tspan1788"
         x="140.71877"
         y="146.62547"
         style="font-style:normal;font-variant:normal;font-weight:500;font-stretch:normal;font-family:'Berthold Akzidenz Grotesk BE';-inkscape-font-specification:'Berthold Akzidenz Grotesk BE Medium';fill:#483737;fill-opacity:1;stroke:none;stroke-width:0.19006881;stroke-opacity:1">@rgcalsaverini</tspan></text>
    <g
       id="g1978"
       transform="translate(-78.611535,-10.818101)">
      <text
         xml:space="preserve"
         style="font-style:normal;font-variant:normal;font-weight:normal;font-stretch:normal;font-size:2.14862394px;line-height:1.25;font-family:'Berthold Akzidenz Grotesk BE';-inkscape-font-specification:'Berthold Akzidenz Grotesk BE';text-align:center;letter-spacing:0px;word-spacing:0px;text-anchor:middle;fill:#483737;fill-opacity:1;stroke:#483737;stroke-width:0.12181176;stroke-opacity:1"
         x="48.939934"
         y="123.14923"
         id="text1831"><tspan
           sodipodi:role="line"
           id="tspan1829"
           x="48.939934"
           y="123.14923"
           style="font-style:normal;font-variant:normal;font-weight:500;font-stretch:normal;font-family:'Berthold Akzidenz Grotesk BE';-inkscape-font-specification:'Berthold Akzidenz Grotesk BE Medium';fill:#483737;fill-opacity:1;stroke:#483737;stroke-width:0.12181176;stroke-opacity:1">SAMPLE RATE</tspan></text>
      <g
         transform="translate(-8.4140787,6.3706596)"
         id="g1955">
        <text
           xml:space="preserve"
           style="font-style:normal;font-variant:normal;font-weight:normal;font-stretch:normal;font-size:3.36335945px;line-height:1.25;font-family:'Berthold Akzidenz Grotesk BE';-inkscape-font-specification:'Berthold Akzidenz Grotesk BE';text-align:center;letter-spacing:0px;word-spacing:0px;text-anchor:middle;fill:#483737;fill-opacity:1;stroke:none;stroke-width:0.50450391"
           x="64.74115"
           y="124.47964"
           id="text1835"><tspan
             sodipodi:role="line"
             id="tspan1833"
             x="64.74115"
             y="124.47964"
             style="fill:#483737;fill-opacity:1;stroke-width:0.50450391">2MHz</tspan></text>
        <text
           id="text1839"
           y="129.56815"
           x="64.858864"
           style="font-style:normal;font-variant:normal;font-weight:normal;font-stretch:normal;font-size:3.36335945px;line-height:1.25;font-family:'Berthold Akzidenz Grotesk BE';-inkscape-font-specification:'Berthold Akzidenz Grotesk BE';text-align:center;letter-spacing:0px;word-spacing:0px;text-anchor:middle;fill:#483737;fill-opacity:1;stroke:none;stroke-width:0.50450391"
           xml:space="preserve"><tspan
             style="fill:#483737;fill-opacity:1;stroke-width:0.50450391"
             y="129.56815"
             x="64.858864"
             id="tspan1837"
             sodipodi:role="line">4MHz</tspan></text>
        <text
           xml:space="preserve"
           style="font-style:normal;font-variant:normal;font-weight:normal;font-stretch:normal;font-size:3.36335945px;line-height:1.25;font-family:'Berthold Akzidenz Grotesk BE';-inkscape-font-specification:'Berthold Akzidenz Grotesk BE';text-align:center;letter-spacing:0px;word-spacing:0px;text-anchor:middle;fill:#483737;fill-opacity:1;stroke:none;stroke-width:0.50450391"
           x="64.791595"
           y="134.64658"
           id="text1843"><tspan
             sodipodi:role="line"
             id="tspan1841"
             x="64.791595"
             y="134.64658"
             style="fill:#483737;fill-opacity:1;stroke-width:0.50450391">6MHz</tspan></text>
        <text
           id="text1847"
           y="139.73509"
           x="64.825233"
           style="font-style:normal;font-variant:normal;font-weight:normal;font-stretch:normal;font-size:3.36335945px;line-height:1.25;font-family:'Berthold Akzidenz Grotesk BE';-inkscape-font-specification:'Berthold Akzidenz Grotesk BE';text-align:center;letter-spacing:0px;word-spacing:0px;text-anchor:middle;fill:#483737;fill-opacity:1;stroke:none;stroke-width:0.50450391"
           xml:space="preserve"><tspan
             style="fill:#483737;fill-opacity:1;stroke-width:0.50450391"
             y="139.73509"
             x="64.825233"
             id="tspan1845"
             sodipodi:role="line">8MHz</tspan></text>
        <path
           style="opacity:1;vector-effect:none;fill:#483737;fill-opacity:1;stroke:none;stroke-width:1.02976644;stroke-linecap:round;stroke-linejoin:round;stroke-miterlimit:4;stroke-dasharray:none;stroke-dashoffset:0;stroke-opacity:1"
           d="m 55.105227,128.71168 c -0.161041,-0.56019 -0.741837,-0.8814 -1.302027,-0.72037 l -0.712685,0.20489 c -2.038021,0.49032 -3.233886,-0.1697 -4.387204,-0.50648 a 3.3420352,3.3420352 0 0 0 -0.05277,-0.0158 c -0.02086,-0.006 -0.04178,-0.0118 -0.06257,-0.0175 a 3.3420352,3.3420352 0 0 0 -0.404661,-0.0921 c -0.01908,-0.004 -0.03826,-0.006 -0.05735,-0.01 a 3.3420352,3.3420352 0 0 0 -0.115847,-0.0168 c -0.215469,-0.0272 -0.434819,-0.0338 -0.663288,-0.01 l -5.5e-5,0.002 a 3.3420352,3.3420352 0 0 0 -0.629789,0.11571 3.3420352,3.3420352 0 0 0 -2.288677,4.13544 3.3420352,3.3420352 0 0 0 4.135366,2.28842 3.3420352,3.3420352 0 0 0 0.594543,-0.23736 l 0.0015,0.003 c 0.179587,-0.0876 0.340463,-0.19192 0.490122,-0.30783 a 3.3420352,3.3420352 0 0 0 0.03042,-0.0231 c 0.05383,-0.0427 0.106387,-0.0872 0.157484,-0.13303 a 3.3420352,3.3420352 0 0 0 0.341426,-0.34261 c 0.818919,-0.90291 1.468459,-2.13043 3.492598,-2.80965 l 0.712693,-0.20487 c 0.560191,-0.16105 0.881735,-0.74166 0.720697,-1.30186 z"
           id="path1887"
           inkscape:connector-curvature="0"
           inkscape:transform-center-x="-2.0673372"
           inkscape:transform-center-y="-0.0078668751" />
        <g
           id="g1913"
           transform="translate(0,0.28183191)">
          <path
             inkscape:connector-curvature="0"
             id="path1901"
             d="m 53.489501,123.00886 h 5.577614"
             style="opacity:1;vector-effect:none;fill:#000000;fill-opacity:1;stroke:#483737;stroke-width:0.5;stroke-linecap:round;stroke-linejoin:round;stroke-miterlimit:4;stroke-dasharray:none;stroke-dashoffset:0;stroke-opacity:1"
             sodipodi:nodetypes="cc" />
          <path
             style="opacity:1;vector-effect:none;fill:#000000;fill-opacity:1;stroke:#483737;stroke-width:0.5;stroke-linecap:round;stroke-linejoin:round;stroke-miterlimit:4;stroke-dasharray:none;stroke-dashoffset:0;stroke-opacity:1"
             d="m 53.519551,138.2744 h 5.547564"
             id="path1903"
             inkscape:connector-curvature="0"
             sodipodi:nodetypes="cc" />
          <path
             inkscape:connector-curvature="0"
             id="path1905"
             d="m 56.917217,133.18589 h 2.149898"
             style="opacity:1;vector-effect:none;fill:#000000;fill-opacity:1;stroke:#483737;stroke-width:0.5;stroke-linecap:round;stroke-linejoin:round;stroke-miterlimit:4;stroke-dasharray:none;stroke-dashoffset:0;stroke-opacity:1"
             sodipodi:nodetypes="cc" />
          <path
             style="opacity:1;vector-effect:none;fill:#000000;fill-opacity:1;stroke:#483737;stroke-width:0.5;stroke-linecap:round;stroke-linejoin:round;stroke-miterlimit:4;stroke-dasharray:none;stroke-dashoffset:0;stroke-opacity:1"
             d="m 56.959714,128.09737 h 2.107401"
             id="path1907"
             inkscape:connector-curvature="0"
             sodipodi:nodetypes="cc" />
        </g>
        <path
           style="opacity:1;vector-effect:none;fill:none;fill-opacity:1;stroke:#483737;stroke-width:0.5;stroke-linecap:round;stroke-linejoin:round;stroke-miterlimit:4;stroke-dasharray:none;stroke-dashoffset:0;stroke-opacity:1"
           id="path1899"
           sodipodi:type="arc"
           sodipodi:cx="47.643822"
           sodipodi:cy="130.92346"
           sodipodi:rx="9.6160898"
           sodipodi:ry="9.6160898"
           sodipodi:start="0.26686312"
           sodipodi:end="0.6981317"
           d="m 56.919529,133.45929 a 9.6160898,9.6160898 0 0 1 -1.909355,3.64528"
           sodipodi:open="true" />
        <path
           id="circle1917"
           style="opacity:1;vector-effect:none;fill:none;fill-opacity:1;stroke:#483737;stroke-width:0.5;stroke-linecap:round;stroke-linejoin:round;stroke-miterlimit:4;stroke-dasharray:none;stroke-dashoffset:0;stroke-opacity:1"
           sodipodi:type="arc"
           sodipodi:cx="47.643822"
           sodipodi:cy="130.92346"
           sodipodi:rx="9.6160898"
           sodipodi:ry="9.6160898"
           sodipodi:start="0.91639453"
           sodipodi:end="1.4008194"
           d="m 53.496989,138.55298 a 9.6160898,9.6160898 0 0 1 -4.226513,1.84799"
           sodipodi:open="true" />
        <path
           sodipodi:open="true"
           d="m 56.959713,-128.37919 a 9.6160898,9.6160898 0 0 1 -1.909355,3.64527"
           sodipodi:end="0.6981317"
           sodipodi:start="0.26686312"
           sodipodi:ry="9.6160898"
           sodipodi:rx="9.6160898"
           sodipodi:cy="-130.91502"
           sodipodi:cx="47.684006"
           sodipodi:type="arc"
           id="path1923"
           style="opacity:1;vector-effect:none;fill:none;fill-opacity:1;stroke:#483737;stroke-width:0.5;stroke-linecap:round;stroke-linejoin:round;stroke-miterlimit:4;stroke-dasharray:none;stroke-dashoffset:0;stroke-opacity:1"
           transform="scale(1,-1)" />
        <path
           sodipodi:open="true"
           d="m 53.537173,-123.2855 a 9.6160898,9.6160898 0 0 1 -4.226513,1.84799"
           sodipodi:end="1.4008194"
           sodipodi:start="0.91639453"
           sodipodi:ry="9.6160898"
           sodipodi:rx="9.6160898"
           sodipodi:cy="-130.91502"
           sodipodi:cx="47.684006"
           sodipodi:type="arc"
           style="opacity:1;vector-effect:none;fill:none;fill-opacity:1;stroke:#483737;stroke-width:0.5;stroke-linecap:round;stroke-linejoin:round;stroke-miterlimit:4;stroke-dasharray:none;stroke-dashoffset:0;stroke-opacity:1"
           id="path1925"
           transform="scale(1,-1)" />
      </g>
    </g>
  </g>
</svg>
